<?xml version="1.0" encoding="utf-8"?>
<!-- Generator: Adobe Illustrator 19.1.0, SVG Export Plug-In . SVG Version: 6.00 Build 0)  -->
<svg version="1.1" id="Layer_1" xmlns="http://www.w3.org/2000/svg" xmlns:xlink="http://www.w3.org/1999/xlink" x="0px" y="0px"
	 width="24px" height="24px" viewBox="0 0 24 24" enable-background="new 0 0 24 24" xml:space="preserve">
<path d="M10,8.3L6.7,4.1c1.8-1.4,4.1-2.3,6.6-2.3c1.9,0,3.8,0.5,5.3,1.4L20,0.9L23.3,9l-8.7,1.2L16,7.8c-0.8-0.5-1.7-0.7-2.7-0.7
	C12.1,7.1,10.9,7.6,10,8.3z M8,12.5h2.7L5.3,5.5L0,12.5h2.7c0,4.5,2.8,8.3,6.7,9.9l2-4.9C9.4,16.6,8,14.7,8,12.5z M24,12.5
	c0-0.5,0-1-0.1-1.5l-5.3,0.7c0,0.3,0.1,0.5,0.1,0.8c0,2-1.1,3.7-2.7,4.6l-1.3-2.3l-3.3,8.1L20,24l-1.3-2.3
	C21.8,19.8,24,16.4,24,12.5z"/>
<g>
</g>
<g>
</g>
<g>
</g>
<g>
</g>
<g>
</g>
<g>
</g>
</svg>
