<?xml version="1.0" encoding="utf-8"?>
<!-- Generator: Adobe Illustrator 19.1.0, SVG Export Plug-In . SVG Version: 6.00 Build 0)  -->
<svg version="1.1" id="Layer_1" xmlns="http://www.w3.org/2000/svg" xmlns:xlink="http://www.w3.org/1999/xlink" x="0px" y="0px"
	 width="24px" height="24px" viewBox="0 0 24 24" enable-background="new 0 0 24 24" xml:space="preserve">
<path d="M18.9,0H5.1C2.3,0,0,2.3,0,5.1v13.9C0,21.7,2.3,24,5.1,24h13.9c2.8,0,5.1-2.3,5.1-5.1V5.1C24,2.3,21.7,0,18.9,0z M8.3,17.6
	L8.1,6.4l9.7,5.4L8.3,17.6z"/>
<g>
</g>
<g>
</g>
<g>
</g>
<g>
</g>
<g>
</g>
<g>
</g>
</svg>
