<?xml version="1.0" encoding="utf-8"?>
<!-- Generator: Adobe Illustrator 19.1.0, SVG Export Plug-In . SVG Version: 6.00 Build 0)  -->
<svg version="1.1" id="Layer_1" xmlns="http://www.w3.org/2000/svg" xmlns:xlink="http://www.w3.org/1999/xlink" x="0px" y="0px"
	 width="24px" height="24px" viewBox="0 0 24 24" enable-background="new 0 0 24 24" xml:space="preserve">
<path d="M0,5.1l0,13.9C0,21.7,2.3,24,5.1,24h13.9c2.8,0,5.1-2.3,5.1-5.1V5.1C24,2.3,21.7,0,18.9,0L5.1,0C2.3,0,0,2.3,0,5.1z
	 M6.1,11.9l9.7-5.4l-0.1,11.1L6.1,11.9z"/>
<g>
</g>
<g>
</g>
<g>
</g>
<g>
</g>
<g>
</g>
<g>
</g>
</svg>
