<?xml version="1.0" encoding="utf-8"?>
<!-- Generator: Adobe Illustrator 19.1.0, SVG Export Plug-In . SVG Version: 6.00 Build 0)  -->
<svg version="1.1" id="Layer_1" xmlns="http://www.w3.org/2000/svg" xmlns:xlink="http://www.w3.org/1999/xlink" x="0px" y="0px"
	 width="24px" height="24px" viewBox="0 0 24 24" enable-background="new 0 0 24 24" xml:space="preserve">
<path d="M12,0C5.4,0,0,5.4,0,12c0,6.6,5.4,12,12,12c6.6,0,12-5.4,12-12C24,5.4,18.6,0,12,0z M18.2,13.5H9.4l2.4,2.4
	c0.6,0.6,0.7,1.6,0.1,2.2c-0.6,0.6-1.6,0.6-2.2-0.1l-4.9-4.9c0,0,0,0-0.1-0.1c0,0,0,0,0,0c-0.6-0.6-0.6-1.6,0.1-2.2l4.9-4.9
	c0.6-0.6,1.6-0.7,2.2-0.1c0.6,0.6,0.6,1.6-0.1,2.2l-2.4,2.4h8.7c0.9,0,1.5,0.7,1.5,1.5C19.8,12.9,19.1,13.5,18.2,13.5z"/>
<g>
</g>
<g>
</g>
<g>
</g>
<g>
</g>
<g>
</g>
<g>
</g>
</svg>
