<?xml version="1.0" encoding="utf-8"?>
<!-- Generator: Adobe Illustrator 19.1.0, SVG Export Plug-In . SVG Version: 6.00 Build 0)  -->
<svg version="1.1" id="Layer_1" xmlns="http://www.w3.org/2000/svg" xmlns:xlink="http://www.w3.org/1999/xlink" x="0px" y="0px"
	 width="24px" height="24px" viewBox="0 0 24 24" enable-background="new 0 0 24 24" xml:space="preserve">
<g>
	<g>
		<path d="M23.2,4.7L15.9,12l7.3,7.3c1.1,1.1,1.1,2.8,0,3.9c-0.5,0.5-1.2,0.8-2,0.8c-0.7,0-1.4-0.3-2-0.8L12,15.9l-7.3,7.3
			c-0.5,0.5-1.3,0.8-2,0.8c-0.7,0-1.4-0.3-2-0.8c-1.1-1.1-1.1-2.8,0-3.9L8.1,12L0.8,4.7c-1.1-1.1-1.1-2.8,0-3.9
			c1.1-1.1,2.8-1.1,3.9,0L12,8.1l7.3-7.3c1.1-1.1,2.8-1.1,3.9,0C24.3,1.9,24.3,3.6,23.2,4.7L23.2,4.7z M23.2,4.7"/>
	</g>
</g>
<g>
</g>
<g>
</g>
<g>
</g>
<g>
</g>
<g>
</g>
<g>
</g>
</svg>
