<?xml version="1.0" encoding="utf-8"?>
<!-- Generator: Adobe Illustrator 19.1.0, SVG Export Plug-In . SVG Version: 6.00 Build 0)  -->
<svg version="1.1" id="Layer_1" xmlns="http://www.w3.org/2000/svg" xmlns:xlink="http://www.w3.org/1999/xlink" x="0px" y="0px"
	 width="24px" height="24px" viewBox="0 0 24 24" enable-background="new 0 0 24 24" xml:space="preserve">
<path d="M6.4,9.1v7.8c0,0.1,0.1,0.2,0.2,0.2h9.1v0.8c0,0.1-0.1,0.2-0.2,0.2h-10c-0.1,0-0.2-0.1-0.2-0.2V9.3c0-0.1,0.1-0.2,0.2-0.2
	H6.4z M17.1,16.7h-10c-0.1,0-0.2-0.1-0.2-0.2V7.8c0-0.1,0.1-0.2,0.2-0.2h10c0.1,0,0.2,0.1,0.2,0.2v8.6
	C17.3,16.6,17.2,16.7,17.1,16.7z M8.6,9.5c0,0.6,0.5,1.1,1.1,1.1c0.6,0,1.1-0.5,1.1-1.1c0-0.6-0.5-1.1-1.1-1.1
	C9.1,8.4,8.6,8.9,8.6,9.5z M16.6,14l-2.5-4.9l-1.2,2.5l-1.3-0.9l-1.2,2l-1-0.7l-1.8,2v0.1L16.6,14L16.6,14z M21.3,17.6l2.7-4.8h-1.7
	c-0.1-6.3-5-11.2-11.1-11.2C5,1.6,0,6.6,0,12.8C0,19,5,24,11.2,24c3.5,0,6.6-1.6,8.7-4.1l-1.3-2.2c-1.6,2.4-4.3,3.9-7.3,3.9
	c-4.9,0-8.8-3.9-8.8-8.8C2.4,7.9,6.3,4,11.2,4c4.8,0,8.7,4,8.7,8.8l-1.7,0L21.3,17.6z"/>
<g>
</g>
<g>
</g>
<g>
</g>
<g>
</g>
<g>
</g>
<g>
</g>
</svg>
