<?xml version="1.0" encoding="utf-8"?>
<!-- Generator: Adobe Illustrator 19.1.0, SVG Export Plug-In . SVG Version: 6.00 Build 0)  -->
<svg version="1.1" id="Layer_1" xmlns="http://www.w3.org/2000/svg" xmlns:xlink="http://www.w3.org/1999/xlink" x="0px" y="0px"
	 width="24px" height="24px" viewBox="0 0 24 24" enable-background="new 0 0 24 24" xml:space="preserve">
<path d="M18.3,12.8l1.7,0C19.9,8,16,4,11.2,4c-4.9,0-8.8,3.9-8.8,8.8c0,1.4,0.3,2.8,1,4c1.1-1.9,2.7-3.5,4.6-5.2L5,8.1l11.6,0.1
	l-1.7,11.5l-3-3.5c-2.3,1.1-4.2,2.4-5.6,3.9c1.4,0.9,3.1,1.5,4.9,1.5c3.1,0,5.8-1.6,7.3-3.9l1.3,2.2c-2.1,2.5-5.2,4.1-8.7,4.1
	c-3.6,0-6.8-1.7-8.8-4.3c-0.1-0.1-0.2-0.1-0.2-0.2c0,0,0-0.1,0-0.1C0.8,17.5,0,15.3,0,12.8C0,6.6,5,1.6,11.2,1.6
	c6.2,0,11,4.8,11.1,11.2H24l-2.7,4.8L18.3,12.8z"/>
<g>
</g>
<g>
</g>
<g>
</g>
<g>
</g>
<g>
</g>
<g>
</g>
</svg>
