<?xml version="1.0" encoding="utf-8"?>
<!-- Generator: Adobe Illustrator 19.1.0, SVG Export Plug-In . SVG Version: 6.00 Build 0)  -->
<svg version="1.1" id="Layer_1" xmlns="http://www.w3.org/2000/svg" xmlns:xlink="http://www.w3.org/1999/xlink" x="0px" y="0px"
	 width="24px" height="24px" viewBox="0 0 24 24" enable-background="new 0 0 24 24" xml:space="preserve">
<path d="M18.3,12.8l1.7,0C19.9,8,16,4,11.2,4c-4.9,0-8.8,3.9-8.8,8.8c0,4.9,4,8.8,8.8,8.8c3.1,0,5.8-1.6,7.3-3.9l1.3,2.2
	c-2.1,2.5-5.2,4.1-8.7,4.1C5,24,0,19,0,12.8C0,6.6,5,1.6,11.2,1.6c6.2,0,11,4.8,11.1,11.2H24l-2.7,4.8L18.3,12.8z M7.2,7.3
	c-0.8,0-1.3,0.5-1.3,1.2c0,0.7,0.5,1.2,1.3,1.2h0c0.8,0,1.3-0.5,1.3-1.2C8.5,7.9,8,7.3,7.2,7.3z M16.5,17.5v-3.9
	c0-2.1-1.1-3.1-2.6-3.1c-1.2,0-1.7,0.7-2,1.1v0h0c0,0,0,0,0,0v-1H9.6c0,0.6,0,6.8,0,6.8h2.3v-3.8c0-0.2,0-0.4,0.1-0.6
	c0.2-0.4,0.5-0.8,1.2-0.8c0.8,0,1.1,0.6,1.1,1.5v3.6H16.5z M6.1,17.5h2.3v-6.8H6.1V17.5z"/>
<g>
</g>
<g>
</g>
<g>
</g>
<g>
</g>
<g>
</g>
<g>
</g>
</svg>
