<?xml version="1.0" encoding="utf-8"?>
<!-- Generator: Adobe Illustrator 19.1.0, SVG Export Plug-In . SVG Version: 6.00 Build 0)  -->
<svg version="1.1" id="Layer_1" xmlns="http://www.w3.org/2000/svg" xmlns:xlink="http://www.w3.org/1999/xlink" x="0px" y="0px"
	 width="24px" height="24px" viewBox="0 0 24 24" enable-background="new 0 0 24 24" xml:space="preserve">
<path d="M18.3,12.8l1.7,0C19.9,8,16,4,11.2,4c-4.9,0-8.8,3.9-8.8,8.8c0,4.9,3.9,8.8,8.8,8.8c3.1,0,5.8-1.6,7.3-3.9l1.3,2.2
	c-2,2.5-5.2,4.1-8.7,4.1C5,24,0,19,0,12.8C0,6.6,5,1.6,11.2,1.6c6.1,0,11,4.8,11.1,11.2H24l-2.7,4.8L18.3,12.8z M8.1,19.5
	c1.3-0.9,1.7-2.7,2.1-4.6c0.7,0.4,1,0.8,1.8,0.9c3.1,0.2,4.8-3.1,4.4-6.1c-0.4-2.7-3.1-4.1-5.9-3.7C8.1,6.1,5.9,8,5.8,10.6
	c-0.1,1.6,0.4,2.8,1.9,3.1c0.7-1.2-0.2-1.4-0.3-2.3c-0.6-3.5,4-5.8,6.4-3.4c1.6,1.7,0.6,6.8-2.1,6.3c-2.5-0.5,1.2-4.6-0.8-5.4
	c-1.6-0.7-2.5,2-1.7,3.3C8.6,14.5,7.7,16.6,8.1,19.5z"/>
<g>
</g>
<g>
</g>
<g>
</g>
<g>
</g>
<g>
</g>
<g>
</g>
</svg>
