<?xml version="1.0" encoding="utf-8"?>
<!-- Generator: Adobe Illustrator 19.1.0, SVG Export Plug-In . SVG Version: 6.00 Build 0)  -->
<svg version="1.1" id="Layer_1" xmlns="http://www.w3.org/2000/svg" xmlns:xlink="http://www.w3.org/1999/xlink" x="0px" y="0px"
	 width="24px" height="24px" viewBox="0 0 24 24" enable-background="new 0 0 24 24" xml:space="preserve">
<path id="XMLID_2_" d="M6.5,0.7C6.5,0.3,6.2,0,5.8,0h-5C0.3,0,0,0.3,0,0.7v5c0,0.4,0.3,0.7,0.7,0.7h5c0.4,0,0.7-0.3,0.7-0.7L6.5,0.7
	L6.5,0.7z M6.5,0.7 M15.2,0.7c0-0.4-0.3-0.7-0.7-0.7h-5C9,0,8.7,0.3,8.7,0.7v5c0,0.4,0.3,0.7,0.7,0.7h5c0.4,0,0.7-0.3,0.7-0.7V0.7z
	 M15.2,0.7 M23.9,0.7c0-0.4-0.3-0.7-0.7-0.7h-5c-0.4,0-0.7,0.3-0.7,0.7v5c0,0.4,0.3,0.7,0.7,0.7h5c0.4,0,0.7-0.3,0.7-0.7L23.9,0.7
	L23.9,0.7z M23.9,0.7 M6.5,9.5c0-0.4-0.3-0.7-0.7-0.7h-5C0.3,8.7,0,9.1,0,9.5v5c0,0.4,0.3,0.7,0.7,0.7h5c0.4,0,0.7-0.3,0.7-0.7
	L6.5,9.5L6.5,9.5z M6.5,9.5 M15.2,9.5c0-0.4-0.3-0.7-0.7-0.7h-5C9,8.7,8.7,9.1,8.7,9.5v5c0,0.4,0.3,0.7,0.7,0.7h5
	c0.4,0,0.7-0.3,0.7-0.7V9.5z M15.2,9.5 M23.9,9.5c0-0.4-0.3-0.7-0.7-0.7h-5c-0.4,0-0.7,0.3-0.7,0.7v5c0,0.4,0.3,0.7,0.7,0.7h5
	c0.4,0,0.7-0.3,0.7-0.7L23.9,9.5L23.9,9.5z M23.9,9.5 M5.8,17.5h-5c-0.4,0-0.7,0.3-0.7,0.7v5C0,23.7,0.3,24,0.7,24h5
	c0.4,0,0.7-0.3,0.7-0.7v-5C6.5,17.8,6.2,17.5,5.8,17.5L5.8,17.5z M5.8,17.5 M14.5,17.5h-5c-0.4,0-0.7,0.3-0.7,0.7v5
	C8.7,23.7,9,24,9.4,24h5c0.4,0,0.7-0.3,0.7-0.7v-5C15.2,17.8,14.9,17.5,14.5,17.5L14.5,17.5z M14.5,17.5 M23.2,17.5h-5
	c-0.4,0-0.7,0.3-0.7,0.7v5c0,0.4,0.3,0.7,0.7,0.7h5c0.4,0,0.7-0.3,0.7-0.7v-5C23.9,17.8,23.6,17.5,23.2,17.5L23.2,17.5z M23.2,17.5"
	/>
<g>
</g>
<g>
</g>
<g>
</g>
<g>
</g>
<g>
</g>
<g>
</g>
</svg>
