<?xml version="1.0" encoding="utf-8"?>
<!-- Generator: Adobe Illustrator 19.1.0, SVG Export Plug-In . SVG Version: 6.00 Build 0)  -->
<svg version="1.1" id="Layer_1" xmlns="http://www.w3.org/2000/svg" xmlns:xlink="http://www.w3.org/1999/xlink" x="0px" y="0px"
	 width="24px" height="24px" viewBox="0 0 24 24" enable-background="new 0 0 24 24" xml:space="preserve">
<path d="M13.2,6h-2.4v4.8H6v2.4h4.8V18h2.4v-4.8H18v-2.4h-4.8V6z M12,0C5.4,0,0,5.4,0,12c0,6.6,5.4,12,12,12h9.6
	c1.3,0,2.4-1.1,2.4-2.4V12C24,5.4,18.6,0,12,0L12,0z M12,21.6c-5.3,0-9.6-4.3-9.6-9.6c0-5.3,4.3-9.6,9.6-9.6c5.3,0,9.6,4.3,9.6,9.6
	C21.6,17.3,17.3,21.6,12,21.6L12,21.6z M12,21.6"/>
<g>
</g>
<g>
</g>
<g>
</g>
<g>
</g>
<g>
</g>
<g>
</g>
</svg>
