{
    "data": [
        {
            "id": "1",
            "name": "Event 1 Luvi",
            "catchline": "Bigger Stronger Faster",
            "pic1": "/lib/img/event1.jpg",
            "pic2": "/lib/img/event2.jpg",
            "pic3": "/lib/img/event3.jpg",
            "pic4": "/lib/img/event4.jpg",
            "wholesale":"179.99",
            "price":"99.99",
            "date": "01/01/2015",
            "description": "With over 67,000 people in attendance, the recent Europa Games 'Get Fit'  & Sports Expo was the hit of Orlando. CrossFit Games, bodybuilding and physique contests, and plenty of supplement vendors packed the convention center with enough buff bodies to fill an ancient Roman coliseum. Check out Eric the Trainer's take on this massive muscle mania event, and see which well known professional bodybuilder makes an appearance. "
        }
    ]
}