{
    "data": [
        {
            "id": "1",
            "name": "Event 1 Luvi",
            "pic": "/lib/img/europa_demo_1.gif",
            "date": "01/01/2015",
            "description": "Lorem ipsum dolor sit amet Lorem ipsum dolor sit amet "
        },
        {
            "id": "2",
            "name": "Event 1 Demo",
            "pic": "/lib/img/europa_demo_1.gif",
            "date": "02/01/2015",
            "description": "Lorem ipsum dolor sit amet Lorem ipsum dolor sit amet "
        },
        {
            "id": "3",
            "name": "Event 1 Robe",
            "pic": "/lib/img/europa_demo_1.gif",
            "date": "03/01/2015",
            "description": "Lorem ipsum dolor sit amet Lorem ipsum dolor sit amet "
        },
        {
            "id": "4",
            "name": "Event 1 Demo",
            "pic": "/lib/img/europa_demo_1.gif",
            "date": "04/01/2015",
            "description": "Lorem ipsum dolor sit amet Lorem ipsum dolor sit amet "
        },
        {
            "id": "5",
            "name": "Event 1 Demo",
            "pic": "/lib/img/europa_demo_1.gif",
            "date": "05/01/2015",
            "description": "Lorem ipsum dolor sit amet Lorem ipsum dolor sit amet "
        },
        {
            "id": "6",
            "name": "Event 1 Luvi",
            "pic": "/lib/img/europa_demo_1.gif",
            "date": "06/01/2015",
            "description": "Lorem ipsum dolor sit amet Lorem ipsum dolor sit amet "
        },
        {
            "id": "7",
            "name": "Event 1 Demo",
            "pic": "/lib/img/europa_demo_1.gif",
            "date": "01/01/2015",
            "description": "Lorem ipsum dolor sit amet Lorem ipsum dolor sit amet "
        },
        {
            "id": "8",
            "name": "Event 1 Demo",
            "pic": "/lib/img/europa_demo_1.gif",
            "date": "02/01/2015",
            "description": "Lorem ipsum dolor sit amet Lorem ipsum dolor sit amet "
        },
        {
            "id": "9",
            "name": "Event 2 Robe",
            "pic": "/lib/img/europa_demo_1.gif",
            "date": "03/01/2015",
            "description": "Lorem ipsum dolor sit amet Lorem ipsum dolor sit amet "
        },
        {
            "id": "10",
            "name": "Event 2 Demo",
            "pic": "/lib/img/europa_demo_1.gif",
            "date": "04/01/2015",
            "description": "Lorem ipsum dolor sit amet Lorem ipsum dolor sit amet "
        },
        {
            "id": "11",
            "name": "Event 2 Demo",
            "pic": "/lib/img/europa_demo_1.gif",
            "date": "05/01/2015",
            "description": "Lorem ipsum dolor sit amet Lorem ipsum dolor sit amet "
        },
        {
            "id": "12",
            "name": "Event 2 Luvi",
            "pic": "/lib/img/europa_demo_1.gif",
            "date": "06/01/2015",
            "description": "Lorem ipsum dolor sit amet Lorem ipsum dolor sit amet "
        },
        {
            "id": "13",
            "name": "Event 2 Demo",
            "pic": "/lib/img/europa_demo_1.gif",
            "date": "01/01/2015",
            "description": "Lorem ipsum dolor sit amet Lorem ipsum dolor sit amet "
        },
        {
            "id": "14",
            "name": "Event 2 Demo",
            "pic": "/lib/img/europa_demo_1.gif",
            "date": "02/01/2015",
            "description": "Lorem ipsum dolor sit amet Lorem ipsum dolor sit amet "
        },
        {
            "id": "15",
            "name": "Event 2 Luvi",
            "pic": "/lib/img/europa_demo_1.gif",
            "date": "03/01/2015",
            "description": "Lorem ipsum dolor sit amet Lorem ipsum dolor sit amet "
        },
        {
            "id": "16",
            "name": "Event 2 Demo",
            "pic": "/lib/img/europa_demo_1.gif",
            "date": "04/01/2015",
            "description": "Lorem ipsum dolor sit amet Lorem ipsum dolor sit amet "
        },
        {
            "id": "17",
            "name": "Event 3 Demo",
            "pic": "/lib/img/europa_demo_1.gif",
            "date": "05/01/2015",
            "description": "Lorem ipsum dolor sit amet Lorem ipsum dolor sit amet "
        },
        {
            "id": "18",
            "name": "Event 3 Demo",
            "pic": "/lib/img/europa_demo_1.gif",
            "date": "06/01/2015",
            "description": "Lorem ipsum dolor sit amet Lorem ipsum dolor sit amet "
        },
        {
            "id": "19",
            "name": "Event 3 Luvi",
            "pic": "/lib/img/europa_demo_1.gif",
            "date": "01/01/2015",
            "description": "Lorem ipsum dolor sit amet Lorem ipsum dolor sit amet "
        },
        {
            "id": "20",
            "name": "Event 3 Demo",
            "pic": "/lib/img/europa_demo_1.gif",
            "date": "02/01/2015",
            "description": "Lorem ipsum dolor sit amet Lorem ipsum dolor sit amet "
        },
        {
            "id": "21",
            "name": "Event 3 Robe",
            "pic": "/lib/img/europa_demo_1.gif",
            "date": "03/01/2015",
            "description": "Lorem ipsum dolor sit amet Lorem ipsum dolor sit amet "
        },
        {
            "id": "22",
            "name": "Event 3 Demo",
            "pic": "/lib/img/europa_demo_1.gif",
            "date": "04/01/2015",
            "description": "Lorem ipsum dolor sit amet Lorem ipsum dolor sit amet "
        },
        {
            "id": "23",
            "name": "Event 3 Demo",
            "pic": "/lib/img/europa_demo_1.gif",
            "date": "05/01/2015",
            "description": "Lorem ipsum dolor sit amet Lorem ipsum dolor sit amet "
        },
        {
            "id": "24",
            "name": "Event 3 Demo",
            "pic": "/lib/img/europa_demo_1.gif",
            "date": "06/01/2015",
            "description": "Lorem ipsum dolor sit amet Lorem ipsum dolor sit amet "
        },
        {
            "id": "25",
            "name": "Event 4 Luvi",
            "pic": "/lib/img/europa_demo_1.gif",
            "date": "01/01/2015",
            "description": "Lorem ipsum dolor sit amet Lorem ipsum dolor sit amet "
        },
        {
            "id": "26",
            "name": "Event 4 Demo",
            "pic": "/lib/img/europa_demo_1.gif",
            "date": "02/01/2015",
            "description": "Lorem ipsum dolor sit amet Lorem ipsum dolor sit amet "
        },
        {
            "id": "27",
            "name": "Event 4 Demo",
            "pic": "/lib/img/europa_demo_1.gif",
            "date": "03/01/2015",
            "description": "Lorem ipsum dolor sit amet Lorem ipsum dolor sit amet "
        },
        {
            "id": "28",
            "name": "Event 4 Demo",
            "pic": "/lib/img/europa_demo_1.gif",
            "date": "04/01/2015",
            "description": "Lorem ipsum dolor sit amet Lorem ipsum dolor sit amet "
        },
        {
            "id": "29",
            "name": "Event 4 Demo",
            "pic": "/lib/img/europa_demo_1.gif",
            "date": "05/01/2015",
            "description": "Lorem ipsum dolor sit amet Lorem ipsum dolor sit amet "
        },
        {
            "id": "30",
            "name": "Event 4 Robe",
            "pic": "/lib/img/europa_demo_1.gif",
            "date": "06/01/2015",
            "description": "Lorem ipsum dolor sit amet Lorem ipsum dolor sit amet "
        },
        {
            "id": "31",
            "name": "Event 4 Demo",
            "pic": "/lib/img/europa_demo_1.gif",
            "date": "01/01/2015",
            "description": "Lorem ipsum dolor sit amet Lorem ipsum dolor sit amet "
        },
        {
            "id": "32",
            "name": "Event 4 Demo",
            "pic": "/lib/img/europa_demo_1.gif",
            "date": "02/01/2015",
            "description": "Lorem ipsum dolor sit amet Lorem ipsum dolor sit amet "
        },
        {
            "id": "33",
            "name": "Event 5 Demo",
            "pic": "/lib/img/europa_demo_1.gif",
            "date": "03/01/2015",
            "description": "Lorem ipsum dolor sit amet Lorem ipsum dolor sit amet "
        },
        {
            "id": "34",
            "name": "Event 5 Demo",
            "pic": "/lib/img/europa_demo_1.gif",
            "date": "04/01/2015",
            "description": "Lorem ipsum dolor sit amet Lorem ipsum dolor sit amet "
        },
        {
            "id": "35",
            "name": "Event 5 Luvi",
            "pic": "/lib/img/europa_demo_1.gif",
            "date": "05/01/2015",
            "description": "Lorem ipsum dolor sit amet Lorem ipsum dolor sit amet "
        },
        {
            "id": "36",
            "name": "Event 5 Demo",
            "pic": "/lib/img/europa_demo_1.gif",
            "date": "06/01/2015",
            "description": "Lorem ipsum dolor sit amet Lorem ipsum dolor sit amet "
        },
        {
            "id": "37",
            "name": "Event 5 Demo",
            "pic": "/lib/img/europa_demo_1.gif",
            "date": "01/01/2015",
            "description": "Lorem ipsum dolor sit amet Lorem ipsum dolor sit amet "
        },
        {
            "id": "38",
            "name": "Event 5 Demo",
            "pic": "/lib/img/europa_demo_1.gif",
            "date": "02/01/2015",
            "description": "Lorem ipsum dolor sit amet Lorem ipsum dolor sit amet "
        },
        {
            "id": "39",
            "name": "Event 5 Demo",
            "pic": "/lib/img/europa_demo_1.gif",
            "date": "03/01/2015",
            "description": "Lorem ipsum dolor sit amet Lorem ipsum dolor sit amet "
        },
        {
            "id": "40",
            "name": "Event 5 Robe",
            "pic": "/lib/img/europa_demo_1.gif",
            "date": "04/01/2015",
            "description": "Lorem ipsum dolor sit amet Lorem ipsum dolor sit amet "
        },
        {
            "id": "41",
            "name": "Event 5 Demo",
            "pic": "/lib/img/europa_demo_1.gif",
            "date": "05/01/2015",
            "description": "Lorem ipsum dolor sit amet Lorem ipsum dolor sit amet "
        },
        {
            "id": "42",
            "name": "Event 6 Demo",
            "pic": "/lib/img/europa_demo_1.gif",
            "date": "06/01/2015",
            "description": "Lorem ipsum dolor sit amet Lorem ipsum dolor sit amet "
        },
        {
            "id": "43",
            "name": "Event 6 Luvi",
            "pic": "/lib/img/europa_demo_1.gif",
            "date": "01/01/2015",
            "description": "Lorem ipsum dolor sit amet Lorem ipsum dolor sit amet "
        },
        {
            "id": "44",
            "name": "Event 6 Demo",
            "pic": "/lib/img/europa_demo_1.gif",
            "date": "02/01/2015",
            "description": "Lorem ipsum dolor sit amet Lorem ipsum dolor sit amet "
        },
        {
            "id": "45",
            "name": "Event 6 Demo",
            "pic": "/lib/img/europa_demo_1.gif",
            "date": "03/01/2015",
            "description": "Lorem ipsum dolor sit amet Lorem ipsum dolor sit amet "
        },
        {
            "id": "46",
            "name": "Event 6 Robe",
            "pic": "/lib/img/europa_demo_1.gif",
            "date": "04/01/2015",
            "description": "Lorem ipsum dolor sit amet Lorem ipsum dolor sit amet "
        },
        {
            "id": "47",
            "name": "Event 6 Demo",
            "pic": "/lib/img/europa_demo_1.gif",
            "date": "05/01/2015",
            "description": "Lorem ipsum dolor sit amet Lorem ipsum dolor sit amet "
        },
        {
            "id": "48",
            "name": "Event 6 Demo",
            "pic": "/lib/img/europa_demo_1.gif",
            "date": "06/01/2015",
            "description": "Lorem ipsum dolor sit amet Lorem ipsum dolor sit amet "
        }
    ]
}